Data Visualisation Survey Result - Cluster Analysis
…
3. Visualisation prototype

# import processed dataset
survey <- read_csv("data_visualization_survey-master/data/processed_survey.csv")
survey <- survey[,2:ncol(survey)]
survey

# A tibble: 1,057 x 40
   Learning_method   Role   Yearly_pay Visualisation_tool   Charts    
   <chr>             <chr>  <chr>      <chr>                <chr>     
 1 Equal Parts Scho… Acade… $40k - $6… ArcGIS,Excel,ggplot… PieChart,…
 2 Mostly Self-Taug… Leade… < $20k     Excel,Tableau,Pikto… LineChart…
 3 Equal Parts Scho… Leade… $120k - $… Excel,PowerBI,R,Tab… LineChart…
 4 Mostly Self-Taug… Leade… $100k - $… Excel,Googledatastu… LineChart…
 5 Mostly Self-Taug… Leade… $100k - $… Excel,Googledatastu… LineChart…
 6 Mostly Self-Taug… Devel… $80k - $1… D3,Illustrator,Leaf… BarChart,…
 7 Mostly Self-Taug… Analy… $100k - $… PowerBI,Tableau,Pen… LineChart…
 8 Mostly Self-Taug… Leade… $20k - $4… D3,Angular,Excel,Ja… LineChart…
 9 Equal Parts Scho… Acade… $100k - $… ArcGIS,D3,Excel,Ill… LineChart…
10 Mostly Self-Taug… Leade… $140k - $… D3,Excel,Java,Mapbo… LineChart…
# … with 1,047 more rows, and 35 more variables:
#   Organization_area <chr>, Undergraduate_major <chr>, Gender <chr>,
#   Country <chr>, tool_Excel <chr>, tool_Tableau <chr>,
#   tool_R <chr>, tool_ggplot2 <chr>, tool_D3 <chr>,
#   tool_Python <chr>, tool_Pen&Paper <chr>, tool_Illustrator <chr>,
#   tool_PowerBI <chr>, tool_Plotly <chr>, tool_Mapbox <chr>,
#   tool_QGIS <chr>, tool_Leaflet <chr>, tool_ArcGIS <chr>,
#   tool_Matplotlib <chr>, tool_React <chr>, chart_BarChart <chr>,
#   chart_LineChart <chr>, chart_Scatterplot <chr>,
…
